<?xml version="1.0" encoding="UTF-8" standalone="no"?>
<svg
   xmlns:dc="http://purl.org/dc/elements/1.1/"
   xmlns:cc="http://creativecommons.org/ns#"
   xmlns:rdf="http://www.w3.org/1999/02/22-rdf-syntax-ns#"
   xmlns:svg="http://www.w3.org/2000/svg"
   xmlns="http://www.w3.org/2000/svg"
   xmlns:sodipodi="http://sodipodi.sourceforge.net/DTD/sodipodi-0.dtd"
   xmlns:inkscape="http://www.inkscape.org/namespaces/inkscape"
   width="157.65941"
   height="148.83821"
   viewBox="0 0 157.65941 148.83821"
   version="1.1"
   id="svg68"
   sodipodi:docname="MineMintmeLogo.svg"
   inkscape:version="1.0 (4035a4fb49, 2020-05-01)">
  <metadata
     id="metadata72">
    <rdf:RDF>
      <cc:Work
         rdf:about="">
        <dc:format>image/svg+xml</dc:format>
        <dc:type
           rdf:resource="http://purl.org/dc/dcmitype/StillImage" />
        <dc:title></dc:title>
      </cc:Work>
    </rdf:RDF>
  </metadata>
  <sodipodi:namedview
     inkscape:document-rotation="0"
     pagecolor="#ffffff"
     bordercolor="#666666"
     borderopacity="1"
     objecttolerance="10"
     gridtolerance="10"
     guidetolerance="10"
     inkscape:pageopacity="0"
     inkscape:pageshadow="2"
     inkscape:window-width="1920"
     inkscape:window-height="1017"
     id="namedview70"
     showgrid="false"
     inkscape:zoom="1.5870871"
     inkscape:cx="94.58183"
     inkscape:cy="89.255913"
     inkscape:window-x="-8"
     inkscape:window-y="-8"
     inkscape:window-maximized="1"
     inkscape:current-layer="svg68" />
  <defs
     id="defs45">
    <clipPath
       id="b">
      <rect
         y="0"
         x="0"
         width="666"
         height="225"
         id="rect42" />
    </clipPath>
  </defs>
  <g
     id="g231"
     transform="translate(-148.78577,-23.584119)">
    <g
       transform="matrix(0.66864342,0,0,0.63123219,10.007508,40.729004)"
       id="g65">
      <g
         id="g63">
        <g
           transform="translate(234.71)"
           id="g61">
          <path
             d="m 3500.68,8195.656 a 90.734,90.734 0 1 0 0,128.316 90.733,90.733 0 0 0 0,-128.316 z m -1.295,127.168 a 88.721,88.721 0 1 1 0,-125.471 88.722,88.722 0 0 1 0,125.471 z"
             transform="translate(-3345.784,-8169.08)"
             fill="#cbb082"
             id="path51" />
          <path
             d="m 3512.231,8216.517 a 84.864,84.864 0 1 0 0,120.016 84.862,84.862 0 0 0 0,-120.016 z m -0.689,119.2 a 83.706,83.706 0 1 1 0,-118.379 83.708,83.708 0 0 1 0,118.374 z"
             transform="translate(-3361.489,-8185.515)"
             fill="#cbb082"
             stroke="#c3a06d"
             stroke-width="0.1"
             id="path53" />
          <g
             transform="translate(8.703,8.845)"
             id="g59">
            <path
               d="m 3831.881,8471.832 a 4.923,4.923 0 0 0 -2.186,-1.961 8.747,8.747 0 0 0 -3.788,-0.711 11.294,11.294 0 0 0 -7.626,2.5 17.742,17.742 0 0 0 -4.679,6.777 h 18.813 a 15.8,15.8 0 0 0 0.268,-3.654 6.571,6.571 0 0 0 -0.802,-2.951 z"
               transform="translate(-3694.984,-8396.337)"
               fill="#cbb082"
               id="path55" />
            <path
               d="m 3518.021,8225.646 a 82.162,82.162 0 1 0 0,116.193 82.166,82.166 0 0 0 0,-116.193 z m -66.047,86.656 10.255,-48.332 h -0.178 l -25.235,48.332 h -13.377 l 0.626,-48.332 h -0.18 l -15.6,48.332 h -16.408 l 20.51,-63.668 h 24.433 q -0.268,7.937 -0.535,14.449 -0.089,2.754 -0.179,5.525 -0.09,2.771 -0.134,5.084 -0.045,2.32 -0.089,4.012 c -0.03,1.125 -0.046,1.9 -0.046,2.318 q 0,1.778 -0.133,4.143 c -0.089,1.578 -0.193,3.076 -0.312,4.506 q -0.179,2.5 -0.357,5.086 h 0.179 q 1.159,-2.584 2.319,-5.086 c 0.651,-1.43 1.351,-2.928 2.094,-4.506 0.743,-1.578 1.441,-2.957 2.1,-4.143 0.238,-0.416 0.638,-1.193 1.205,-2.318 0.567,-1.125 1.232,-2.465 2.006,-4.012 0.774,-1.547 1.619,-3.244 2.54,-5.084 0.921,-1.84 1.858,-3.689 2.811,-5.525 q 3.3,-6.516 7.223,-14.449 h 24.434 l -13.467,63.668 z m 76.729,-23.9 a 25.976,25.976 0 0 1 -1.471,4.547 h -33.35 a 11.585,11.585 0 0 0 -0.268,3.793 7.2,7.2 0 0 0 1.249,3.473 7.983,7.983 0 0 0 3.119,2.59 12.243,12.243 0 0 0 5.44,1.027 28,28 0 0 0 4.948,-0.492 q 2.722,-0.489 5.441,-1.2 2.719,-0.711 5.3,-1.562 2.584,-0.85 4.636,-1.648 l -5.35,11.945 a 5.545,5.545 0 0 1 -1.872,0.627 c -1.189,0.293 -2.706,0.609 -4.547,0.938 -1.841,0.329 -3.895,0.607 -6.154,0.846 a 63.961,63.961 0 0 1 -6.6,0.355 28.523,28.523 0 0 1 -10.386,-1.693 16.124,16.124 0 0 1 -6.868,-4.861 15.105,15.105 0 0 1 -3.121,-7.758 27.562,27.562 0 0 1 0.937,-10.387 32.729,32.729 0 0 1 12.216,-18.148 31.126,31.126 0 0 1 9.186,-4.633 33.581,33.581 0 0 1 10.076,-1.566 22.242,22.242 0 0 1 8.559,1.521 15.252,15.252 0 0 1 5.931,4.189 15.639,15.639 0 0 1 3.211,6.193 20.422,20.422 0 0 1 0.489,7.537 q -0.261,2.14 -0.754,4.365 z"
               transform="translate(-3377.76,-8201.582)"
               fill="#cbb082"
               id="path57" />
          </g>
        </g>
      </g>
    </g>
    <g
       transform="matrix(0.35089545,0,0,0.33126252,31.550615,-2.1254578)"
       id="g170">
      <path
         id="path109"
         fill="#985b3f"
         d="m 456.70211,190.91673 -10.24,10.24 a 5.4271999,5.4271999 0 0 0 0,7.71413 L 647.2685,409.7114 a 5.4613333,5.4613333 0 0 0 7.74827,0 l 10.24,-10.24 a 5.4613333,5.4613333 0 0 0 0,-7.74827 L 464.41624,190.91673 a 5.4271999,5.4271999 0 0 0 -7.71413,0"
         style="stroke-width:3.41333" />
      <path
         id="path111"
         fill="#3a556a"
         d="m 620.06423,167.2282 c -44.7488,-13.07307 -97.92853,-1.2288 -139.74186,33.8944 l -3.7888,-3.85707 a 2.0821333,2.0821333 0 0 0 -2.90133,0 l -20.92373,20.92373 a 2.0138666,2.0138666 0 0 0 0,2.90134 l 3.95946,4.16426 c -33.72373,41.43787 -44.9536,93.5936 -32.08533,137.5232 a 2.6965333,2.6965333 0 0 0 5.29067,-0.3072 c 5.49546,-36.7616 23.89333,-75.91253 53.76,-110.2848 l 4.16426,4.16427 a 2.0138666,2.0138666 0 0 0 2.90133,0 l 20.92374,-20.92373 a 2.0138666,2.0138666 0 0 0 0,-2.90134 l -4.26667,-4.26666 c 34.85013,-31.0272 74.8544,-50.03947 112.36693,-55.63734 a 2.7306666,2.7306666 0 0 0 0.34133,-5.39306 z"
         style="stroke-width:3.41333" />
      <path
         id="path113"
         fill="#2f4859"
         d="m 480.32237,201.05433 27.0336,27.0336 -25.56586,-28.22827 z"
         style="stroke-width:3.41333" />
      <g
         id="g121"
         fill="#8b533a"
         transform="matrix(3.4133333,0,0,3.4133333,287.1277,30.694868)">
        <path
           id="path115"
           d="m 96.08,97.56 a 18,18 0 0 0 4.55,3.88 z m -8.5,-7.25 8.5,7.25 a 16.92,16.92 0 0 1 -1.24,-1.65 36.68,36.68 0 0 0 6.88,5.53 l 6,5.32 A 31,31 0 0 0 92,91.76 l 2.19,2.42 a 30.11,30.11 0 0 1 -6.62,-3.87 m -2.35,-2 a 29.7,29.7 0 0 0 2.35,2 z" />
        <path
           id="path117"
           d="m 72,74.79 a 119,119 0 0 0 10.28,8.59 l -1.42,-0.1 a 22.12,22.12 0 0 0 6.4,5.18 A 19.72,19.72 0 0 1 83.13,84 l 0.18,0.06 5,3.24 A 1.9,1.9 0 0 0 88,85.57 l 1.31,1 a 75.58,75.58 0 0 0 -11.37,-8.67 8.21,8.21 0 0 0 1.52,2.21 z" />
        <path
           id="path119"
           d="m 63,64.58 0.48,0.85 -0.3,-0.1 A 22,22 0 0 0 67,68.87 2.61,2.61 0 0 0 66.56,67.7 17.07,17.07 0 0 0 69.09,70 l -0.61,-0.72 a 48.71,48.71 0 0 0 4,3.28 L 71.7,71.83 A 29.78,29.78 0 0 0 76.85,75.54 45.16,45.16 0 0 0 70.5,69 c 0.41,0.51 0.81,1 1.21,1.55 L 69.31,68 A 2.4,2.4 0 0 0 70,69.19 25.76,25.76 0 0 0 65.68,66 2.18,2.18 0 0 0 65.9,67.06 l -3,-2.48" />
      </g>
    </g>
  </g>
  <path
     id="path190"
     d="M 0,0 V 148.83821 H 157.65941 V 0 Z M 11.26139,10.631302 H 146.39802 V 138.20691 H 11.26139 Z"
     fill="#999999"
     style="stroke-width:10.9418" />
</svg>
